cpt4/regIncr-sim.vcd
$date
  Mon Nov 11 01:39:05 2024
$end
$version
  PyMTL 3 (Mamba)
$end
$timescale
 10ps
$end

$scope module top $end
  $var reg 1 ! reset $end
  $var reg 8 " out $end
  $var reg 8 # reg_out $end
  $var reg 8 $ in_ $end
  $var reg 1 % clk $end
$upscope $end
$enddefinitions $end

b0b0 !
b0b00000000 "
b0b00000000 #
b0b00000000 $
b0b0 %

#0
b0b1 %

b0b1 !
b0b00000001 "

#50
b0b0 %
#100
b0b1 %


#150
b0b0 %
#200
b0b1 %


#250
b0b0 %
#300
b0b1 %

b0b0 !

#350
b0b0 %
#400
b0b1 %


#450
b0b0 %
#500
b0b1 %


#550
b0b0 %
#600
b0b1 %

