PyMTL3/cpt4/RegIncr2stage_test__test_random.vcd
$date
  Mon Nov 25 15:58:49 2024
$end
$version
  PyMTL 3 (Mamba)
$end
$timescale
 10ps
$end

$scope module top $end
  $var reg 1 $ reset $end
  $var reg 8 # out $end
  $var reg 1 ! clk $end
  $var reg 8 % in_ $end
  $scope module reg_incr_1 $end
    $var reg 8 # out $end
    $var reg 1 $ reset $end
    $var reg 8 & reg_out $end
    $var reg 1 ! clk $end
    $var reg 8 " in_ $end
  $upscope $end
  $scope module reg_incr_0 $end
    $var reg 8 " out $end
    $var reg 1 ! clk $end
    $var reg 8 ' reg_out $end
    $var reg 8 % in_ $end
    $var reg 1 $ reset $end
  $upscope $end
$upscope $end
$enddefinitions $end

b0b0 !
b0b00000000 "
b0b00000000 #
b0b0 $
b0b00000000 %
b0b00000000 &
b0b00000000 '

#0
b0b1 !

b0b00000001 "
b0b00000001 #
b0b1 $
b0b00000000 %

#50
b0b0 !
#100
b0b1 !


#150
b0b0 !
#200
b0b1 !


#250
b0b0 !
#300
b0b1 !

b0b0 $
b0b10110100 %

#350
b0b0 !
#400
b0b1 !

b0b10110101 "
b0b00000010 #
b0b11001111 %
b0b00000001 &
b0b10110100 '

#450
b0b0 !
#500
b0b1 !

b0b11010000 "
b0b10110110 #
b0b11110010 %
b0b10110101 &
b0b11001111 '

#550
b0b0 !
#600
b0b1 !

b0b11110011 "
b0b11010001 #
b0b01000001 %
b0b11010000 &
b0b11110010 '

#650
b0b0 !
#700
b0b1 !

b0b01000010 "
b0b11110100 #
b0b10001000 %
b0b11110011 &
b0b01000001 '

#750
b0b0 !
#800
b0b1 !

b0b10001001 "
b0b01000011 #
b0b10100011 %
b0b01000010 &
b0b10001000 '

#850
b0b0 !
#900
b0b1 !

b0b10100100 "
b0b10001010 #
b0b11111010 %
b0b10001001 &
b0b10100011 '

#950
b0b0 !
#1000
b0b1 !

b0b11111011 "
b0b10100101 #
b0b00011001 %
b0b10100100 &
b0b11111010 '

#1050
b0b0 !
#1100
b0b1 !

b0b00011010 "
b0b11111100 #
b0b11000111 %
b0b11111011 &
b0b00011001 '

#1150
b0b0 !
#1200
b0b1 !

b0b11001000 "
b0b00011011 #
b0b11001001 %
b0b00011010 &
b0b11000111 '

#1250
b0b0 !
#1300
b0b1 !

b0b11001010 "
b0b11001001 #
b0b00111111 %
b0b11001000 &
b0b11001001 '

#1350
b0b0 !
#1400
b0b1 !

b0b01000000 "
b0b11001011 #
b0b10101011 %
b0b11001010 &
b0b00111111 '

#1450
b0b0 !
#1500
b0b1 !

b0b10101100 "
b0b01000001 #
b0b01001101 %
b0b01000000 &
b0b10101011 '

#1550
b0b0 !
#1600
b0b1 !

b0b01001110 "
b0b10101101 #
b0b10101100 %
b0b10101100 &
b0b01001101 '

#1650
b0b0 !
#1700
b0b1 !

b0b10101101 "
b0b01001111 #
b0b00000010 %
b0b01001110 &
b0b10101100 '

#1750
b0b0 !
#1800
b0b1 !

b0b00000011 "
b0b10101110 #
b0b11011111 %
b0b10101101 &
b0b00000010 '

#1850
b0b0 !
#1900
b0b1 !

b0b11100000 "
b0b00000100 #
b0b11111001 %
b0b00000011 &
b0b11011111 '

#1950
b0b0 !
#2000
b0b1 !

b0b11111010 "
b0b11100001 #
b0b00001101 %
b0b11100000 &
b0b11111001 '

#2050
b0b0 !
#2100
b0b1 !

b0b00001110 "
b0b11111011 #
b0b00110010 %
b0b11111010 &
b0b00001101 '

#2150
b0b0 !
#2200
b0b1 !

b0b00110011 "
b0b00001111 #
b0b11110110 %
b0b00001110 &
b0b00110010 '

#2250
b0b0 !
#2300
b0b1 !

b0b11110111 "
b0b00110100 #
b0b00110011 &
b0b11110110 '

#2350
b0b0 !
#2400
b0b1 !

b0b11111000 #
b0b11110111 &

#2450
b0b0 !
#2500
b0b1 !


#2550
b0b0 !
#2600
b0b1 !

